{
  "name": "Ratings",
  "base": "PersistedModel",
  "idInjection": true,
  "options": {
    "validateUpsert": true
  },
  "properties": {
    "idState": {
      "type": "number",
      "required": true
    },
    "idRater": {
      "type": "number",
      "required": true
    },
    "rating": {
      "type": "number",
      "required": true
    },
    "ratingText": {
      "type": "string",
      "required": true
    }
  },
  "validations": [],
  "relations": {},
  "acls": [],
  "methods": {}
}
